<?xml version="1.0" encoding="UTF-8" standalone="no"?>
<!-- Created with Inkscape (http://www.inkscape.org/) -->

<svg
   xmlns:dc="http://purl.org/dc/elements/1.1/"
   xmlns:cc="http://creativecommons.org/ns#"
   xmlns:rdf="http://www.w3.org/1999/02/22-rdf-syntax-ns#"
   xmlns:svg="http://www.w3.org/2000/svg"
   xmlns="http://www.w3.org/2000/svg"
   xmlns:sodipodi="http://sodipodi.sourceforge.net/DTD/sodipodi-0.dtd"
   xmlns:inkscape="http://www.inkscape.org/namespaces/inkscape"
   version="1.1"
   id="svg2"
   xml:space="preserve"
   width="150"
   height="150"
   viewBox="0 0 150 150"
   sodipodi:docname="sample-fleur-violettes.svg"
   inkscape:version="0.92.1 r15371"><metadata
     id="metadata8"><rdf:RDF><cc:Work
         rdf:about=""><dc:format>image/svg+xml</dc:format><dc:type
           rdf:resource="http://purl.org/dc/dcmitype/StillImage" /><dc:title /></cc:Work></rdf:RDF></metadata><defs
     id="defs6"><clipPath
       clipPathUnits="userSpaceOnUse"
       id="clipPath18"><path
         d="M 0,1500 H 3127.032 V 0 H 0 Z"
         id="path16"
         inkscape:connector-curvature="0" /></clipPath><clipPath
       clipPathUnits="userSpaceOnUse"
       id="clipPath662"><path
         d="M 0,1500 H 3127.032 V 0 H 0 Z"
         id="path660"
         inkscape:connector-curvature="0" /></clipPath><clipPath
       clipPathUnits="userSpaceOnUse"
       id="clipPath678"><path
         d="M 0,1500 H 3127.032 V 0 H 0 Z"
         id="path676"
         inkscape:connector-curvature="0" /></clipPath><clipPath
       clipPathUnits="userSpaceOnUse"
       id="clipPath1070"><path
         d="M 0,1500 H 3127.032 V 0 H 0 Z"
         id="path1068"
         inkscape:connector-curvature="0" /></clipPath><clipPath
       clipPathUnits="userSpaceOnUse"
       id="clipPath2242"><path
         d="M 0,1500 H 3127.032 V 0 H 0 Z"
         id="path2240"
         inkscape:connector-curvature="0" /></clipPath></defs><sodipodi:namedview
     pagecolor="#ffffff"
     bordercolor="#666666"
     borderopacity="1"
     objecttolerance="10"
     gridtolerance="10"
     guidetolerance="10"
     inkscape:pageopacity="0"
     inkscape:pageshadow="2"
     inkscape:window-width="1920"
     inkscape:window-height="1016"
     id="namedview4"
     showgrid="false"
     inkscape:zoom="1.7230406"
     inkscape:cx="148.96668"
     inkscape:cy="41.583518"
     inkscape:window-x="0"
     inkscape:window-y="27"
     inkscape:window-maximized="1"
     inkscape:current-layer="g10" /><g
     id="g10"
     inkscape:groupmode="layer"
     inkscape:label="03-planche"
     transform="matrix(1.3333333,0,0,-1.3333333,0,150)"><g
       transform="matrix(1.2937975,0,0,1.2937975,-268.12458,-485.03445)"
       id="g22476-7"
       inkscape:export-xdpi="300"
       inkscape:export-ydpi="300"
       style="stroke-width:1.73906663;stroke-miterlimit:4;stroke-dasharray:none"><g
         id="g25110"
         transform="matrix(0.40275807,-0.69759743,0.69759743,0.40275807,-147.79092,465.08804)"
         style="stroke-width:2.15894699;stroke-miterlimit:4;stroke-dasharray:none"><g
           id="g632-7"
           transform="translate(274.3335,420.333)"
           style="stroke-width:2.15894699;stroke-miterlimit:4;stroke-dasharray:none"><path
             d="m 0,0 c -4.101,2.602 -4.777,-6.604 -6.258,-7.974 -0.39,3.344 -0.922,6.073 -2.97,8.849 -0.802,1.088 -2.325,2.603 -3.795,2.569 -2.223,-0.049 -2.824,-3.069 -3.456,-4.718 -1.084,-2.834 -1.805,-5.68 -0.272,-8.493 1.302,-2.391 3.592,-3.066 5.302,-4.915 -2.343,0.614 -5.431,0.67 -7.628,-0.465 -1.791,-0.926 -4.542,-3.918 -5.3,-5.819 -1.405,-3.524 3.398,-3.729 5.616,-3.716 3.077,0.02 5.44,-0.1 7.729,2.222 -1.581,-3.154 -2,-6.151 -1.235,-9.59 0.648,-2.914 1.372,-5.398 5.015,-4.344 5.752,1.667 7.273,10.116 4.952,14.942 1.406,-1.31 2.916,-3.633 4.975,-3.87 2.368,-0.275 3.37,2.132 4.385,3.847 3.501,5.923 -4.019,6.292 -7.593,8.476 1.054,0.895 1.906,2.08 2.721,3.166 0.85,1.132 2.521,2.284 3.035,3.56 C 5.722,-5.034 4.638,-1.544 3,-1.667"
             style="fill:#ff00ff;fill-opacity:1;fill-rule:nonzero;stroke:none;stroke-width:2.15894699;stroke-miterlimit:4;stroke-dasharray:none"
             id="path634-1"
             inkscape:connector-curvature="0" /></g><g
           id="g636-1"
           transform="translate(289.3335,437.666)"
           style="stroke-width:2.15894699;stroke-miterlimit:4;stroke-dasharray:none"><path
             d="m 0,0 c -2.048,0.269 -2.152,0.25 -3.126,-1.213 -0.321,-0.48 -0.946,-1.012 -1.136,-1.562 -0.417,-1.214 0.081,-2.536 1.145,-3.183 -2.109,3.156 -7.755,-1.595 -6.882,-4.301 0.576,-1.786 1.415,-3.377 3.371,-3.706 2.027,-0.34 4.587,0.321 6.543,0.839 -2.718,-3.132 -5.255,-8.617 -0.363,-10.986 4.755,-2.304 5.682,5.943 5.849,9.078 1.532,-1.314 2.721,-3.116 4.724,-3.725 1.802,-0.547 4.855,-0.718 6.133,0.965 3.339,4.398 -3.984,5.74 -5.898,8.037 2.853,1.641 9.89,7.255 5.511,10.747 C 10.915,4.94 6.97,-0.193 4.65,-4.25 4.688,-2.68 5.176,-0.014 4.368,1.332 3.638,2.547 1.333,3.479 0,3.333"
             style="fill:#ff00ff;fill-opacity:1;fill-rule:nonzero;stroke:none;stroke-width:2.15894699;stroke-miterlimit:4;stroke-dasharray:none"
             id="path638-5"
             inkscape:connector-curvature="0" /></g><g
           id="g640-9"
           transform="translate(293,405.999)"
           style="stroke-width:2.15894699;stroke-miterlimit:4;stroke-dasharray:none"><path
             d="M 0,0 C -2.888,1.182 -3.979,-7.002 -0.041,-7.96 2.478,-8.572 4.455,-6.586 4.674,-4.227 4.823,-2.63 4.202,-1.384 3.016,-0.272 2.386,0.318 1.188,1.349 0.667,0"
             style="fill:#ff00ff;fill-opacity:1;fill-rule:nonzero;stroke:none;stroke-width:2.15894699;stroke-miterlimit:4;stroke-dasharray:none"
             id="path642-7"
             inkscape:connector-curvature="0" /></g><g
           id="g644-7"
           transform="translate(281.3335,373.999)"
           style="stroke-width:2.15894699;stroke-miterlimit:4;stroke-dasharray:none"><path
             d="m 0,0 c -1.172,-0.221 -2.3,0.498 -3.608,0.275 -1.13,-2.056 -0.976,-4.559 0.528,-6.307 1.055,-1.227 3.456,-3.471 5.248,-2.848 2.15,0.747 2.998,4.144 2.436,6.091 C 4.102,-1.045 -0.39,3.024 -1.667,0"
             style="fill:#ff00ff;fill-opacity:1;fill-rule:nonzero;stroke:none;stroke-width:2.15894699;stroke-miterlimit:4;stroke-dasharray:none"
             id="path646-6"
             inkscape:connector-curvature="0" /></g><g
           id="g1944-7"
           transform="translate(329.6665,372.666)"
           style="stroke-width:2.15894699;stroke-miterlimit:4;stroke-dasharray:none"><path
             d="m 0,0 c -1.167,4.667 -3.068,6.117 -4.592,7.098 -2.198,1.413 -4.934,2.267 -7.489,2.599 -5.344,0.696 -10.779,1.321 -16.159,1.324 -5.486,0.004 -10.467,0.093 -15.582,2.333 -4.54,1.989 -10.478,6.64 -13.536,11.737"
             style="fill:none;stroke:#000000;stroke-width:2.15894699;stroke-linecap:round;stroke-linejoin:round;stroke-miterlimit:4;stroke-dasharray:none;stroke-opacity:1"
             id="path1946-3"
             inkscape:connector-curvature="0" /></g><g
           id="g1948-6"
           transform="translate(266.0225,402.0889)"
           style="stroke-width:2.15894699;stroke-miterlimit:4;stroke-dasharray:none"><path
             d="m 0,0 c -1.869,-2.038 -3.641,-4.18 -6.438,-5.723 -1.039,-0.573 -2.789,-1.079 -3.974,-1.124 -1.402,-0.054 -4.962,0.901 -5.799,2.057 -1.724,2.38 4.134,8.236 6.572,8.936 1.423,0.41 3.432,0.145 4.924,0.142 1.438,-0.004 2.986,-0.068 4.316,-0.661 -2.911,2.442 -6.886,4.637 -7.496,8.693 -0.318,2.119 -0.938,8.887 1.749,9.744 3.255,1.04 6.447,-3.471 7.394,-5.92 1.31,-3.39 1.227,-7.534 1.737,-11.124 -0.153,4.065 1.037,16.403 7.628,13.38 1.282,-0.587 3.555,-1.53 3.936,-3.053 0.45,-1.802 -1.363,-3.929 -2.34,-5.237 C 10.045,7.214 8.007,5.309 5.096,3.228 c 2.95,0.506 5.811,0.442 8.701,-0.382 3.461,-0.987 4.337,-3.233 2.755,-6.577 -3.286,-6.946 -9.746,-0.123 -12.899,2.796 2.624,-4.496 4.542,-9.827 1.026,-14.715 -1.595,-2.218 -5.632,-4.046 -7.674,-1.3 -1.998,2.687 -0.967,7.568 -0.233,10.324 C -2.388,-3.477 -1.775,-2.803 0,0"
             style="fill:none;stroke:#000000;stroke-width:2.15894699;stroke-linecap:round;stroke-linejoin:round;stroke-miterlimit:4;stroke-dasharray:none;stroke-opacity:1"
             id="path1950-5"
             inkscape:connector-curvature="0" /></g><g
           id="g1952-6"
           transform="translate(329.6665,387.999)"
           style="stroke-width:2.15894699;stroke-miterlimit:4;stroke-dasharray:none"><path
             d="m 0,0 c -0.5,4.334 -2.5,9.834 -5.333,12.167 -5.046,4.155 -10.776,4.518 -16.494,7.178 -3.079,1.433 -6.539,3.019 -8.532,5.938 -2.164,3.169 -4.489,8.166 -4.308,12.051"
             style="fill:none;stroke:#000000;stroke-width:2.15894699;stroke-linecap:round;stroke-linejoin:round;stroke-miterlimit:4;stroke-dasharray:none;stroke-opacity:1"
             id="path1954-3"
             inkscape:connector-curvature="0" /></g><g
           id="g1956-9"
           transform="translate(290,425.667)"
           style="stroke-width:2.15894699;stroke-miterlimit:4;stroke-dasharray:none"><path
             d="m 0,0 c -0.828,-1.934 -5.492,-9.104 -3.496,-10.578 1.401,-1.035 2.973,-2.171 4.782,-2.128 2.46,0.059 3.096,2.611 3.366,4.738 0.378,2.969 0.076,4.377 0.515,7.384"
             style="fill:none;stroke:#000000;stroke-width:2.15894699;stroke-linecap:round;stroke-linejoin:round;stroke-miterlimit:4;stroke-dasharray:none;stroke-opacity:1"
             id="path1958-4"
             inkscape:connector-curvature="0" /></g><g
           id="g1960-8"
           transform="translate(289.75,425.667)"
           style="stroke-width:2.15894699;stroke-miterlimit:4;stroke-dasharray:none"><path
             d="m 0,0 c -3.667,-2 -9.25,-5.25 -11.25,0.333 -0.167,2.834 2.081,5.015 5.24,4.368 2.763,-0.566 5.799,-0.098 8.486,-1.058 -1.23,0.663 -2.457,1.325 -3.744,1.874 -1.189,0.506 -3.014,0.853 -3.746,2.035 -1.276,2.058 0.766,6.033 2.849,6.837 5.769,2.224 6.641,-5.369 7.248,-9.139 0.502,2.81 1.278,6.46 3.167,8 2.392,1.95 4.764,2.208 6.917,-0.25 1.902,-2.171 1.94,-6.053 -1.119,-7.79 C 12.014,4.054 9.994,3.101 7.685,2.667 10.982,2.195 16.55,2.058 17.239,-2.307 17.558,-4.321 15.641,-6.321 13.767,-6.775 11.081,-7.427 9.135,-5.843 7.523,-3.946 6.833,-3.135 6.713,-1.848 6.083,-1"
             style="fill:none;stroke:#000000;stroke-width:2.15894699;stroke-linecap:round;stroke-linejoin:round;stroke-miterlimit:4;stroke-dasharray:none;stroke-opacity:1"
             id="path1962-1"
             inkscape:connector-curvature="0" /></g><g
           id="g1964-2"
           transform="translate(329.25,357.5)"
           style="stroke-width:2.15894699;stroke-miterlimit:4;stroke-dasharray:none"><path
             d="m 0,0 c -2.75,4.375 -11.75,9.75 -15.875,9.75 -10.804,0 -22,-5.375 -28.042,-2.25"
             style="fill:none;stroke:#000000;stroke-width:2.15894699;stroke-linecap:round;stroke-linejoin:round;stroke-miterlimit:4;stroke-dasharray:none;stroke-opacity:1"
             id="path1966-9"
             inkscape:connector-curvature="0" /></g><g
           id="g1968-3"
           transform="translate(285.3335,365.667)"
           style="stroke-width:2.15894699;stroke-miterlimit:4;stroke-dasharray:none"><path
             d="m 0,0 c 0.526,1.706 1.006,5.813 -0.307,7.274 -1.207,1.344 -5.202,2.06 -6.785,1.15 -2.498,-1.435 -1.749,-5.308 -0.083,-6.948 2.42,-2.385 5.409,-2.944 8.508,-1.809"
             style="fill:none;stroke:#000000;stroke-width:2.15894699;stroke-linecap:round;stroke-linejoin:round;stroke-miterlimit:4;stroke-dasharray:none;stroke-opacity:1"
             id="path1970-9"
             inkscape:connector-curvature="0" /></g><g
           id="g1972-0"
           transform="translate(329.125,360.375)"
           style="stroke-width:2.15894699;stroke-miterlimit:4;stroke-dasharray:none"><path
             d="M 0,0 C -4.5,5.125 -7.125,15.75 -17.375,19.75 -27.629,23.752 -33.125,31 -33.458,35.959"
             style="fill:none;stroke:#000000;stroke-width:2.15894699;stroke-linecap:round;stroke-linejoin:round;stroke-miterlimit:4;stroke-dasharray:none;stroke-opacity:1"
             id="path1974-8"
             inkscape:connector-curvature="0" /></g><g
           id="g1976-8"
           transform="translate(295.3335,396.334)"
           style="stroke-width:2.15894699;stroke-miterlimit:4;stroke-dasharray:none"><path
             d="m 0,0 c -3.435,1.164 -4.767,2.394 -4.312,6.181 0.266,2.205 1.275,4.03 3.758,3.858 C 1.81,9.875 2.946,7.971 3.004,5.83 3.048,4.224 2.83,0.881 0.667,0.666"
             style="fill:none;stroke:#000000;stroke-width:2.15894699;stroke-linecap:round;stroke-linejoin:round;stroke-miterlimit:4;stroke-dasharray:none;stroke-opacity:1"
             id="path1978-5"
             inkscape:connector-curvature="0" /></g><g
           id="g1980-0"
           transform="translate(296.5,427.333)"
           style="stroke-width:2.15894699;stroke-miterlimit:4;stroke-dasharray:none"><path
             d="m 0,0 c 0,-1.196 -0.97,-2.167 -2.167,-2.167 -1.196,0 -2.166,0.971 -2.166,2.167 0,1.196 0.97,2.167 2.166,2.167 C -0.97,2.167 0,1.196 0,0 Z"
             style="fill:none;stroke:#000000;stroke-width:2.15894699;stroke-linecap:round;stroke-linejoin:round;stroke-miterlimit:4;stroke-dasharray:none;stroke-opacity:1"
             id="path1982-9"
             inkscape:connector-curvature="0" /></g><g
           id="g1984-6"
           transform="translate(254.3335,399.583)"
           style="stroke-width:2.15894699;stroke-miterlimit:4;stroke-dasharray:none"><path
             d="M 0,0 11.667,4.25"
             style="fill:none;stroke:#000000;stroke-width:2.15894699;stroke-linecap:round;stroke-linejoin:round;stroke-miterlimit:4;stroke-dasharray:none;stroke-opacity:1"
             id="path1986-3"
             inkscape:connector-curvature="0" /></g><g
           id="g1988-8"
           transform="translate(267.167,406.75)"
           style="stroke-width:2.15894699;stroke-miterlimit:4;stroke-dasharray:none"><path
             d="M 0,0 -3.583,9.583"
             style="fill:none;stroke:#000000;stroke-width:2.15894699;stroke-linecap:round;stroke-linejoin:round;stroke-miterlimit:4;stroke-dasharray:none;stroke-opacity:1"
             id="path1990-5"
             inkscape:connector-curvature="0" /></g><g
           id="g1992-6"
           transform="translate(269.8335,405.583)"
           style="stroke-width:2.15894699;stroke-miterlimit:4;stroke-dasharray:none"><path
             d="M 0,0 5,9.75"
             style="fill:none;stroke:#000000;stroke-width:2.15894699;stroke-linecap:round;stroke-linejoin:round;stroke-miterlimit:4;stroke-dasharray:none;stroke-opacity:1"
             id="path1994-1"
             inkscape:connector-curvature="0" /></g><g
           id="g1996-1"
           transform="translate(269.917,403.417)"
           style="stroke-width:2.15894699;stroke-miterlimit:4;stroke-dasharray:none"><path
             d="M 0,0 8.25,-3.25"
             style="fill:none;stroke:#000000;stroke-width:2.15894699;stroke-linecap:round;stroke-linejoin:round;stroke-miterlimit:4;stroke-dasharray:none;stroke-opacity:1"
             id="path1998-5"
             inkscape:connector-curvature="0" /></g><g
           id="g2000-9"
           transform="translate(267.75,401.667)"
           style="stroke-width:2.15894699;stroke-miterlimit:4;stroke-dasharray:none"><path
             d="M 0,0 -1.083,-11.25"
             style="fill:none;stroke:#000000;stroke-width:2.15894699;stroke-linecap:round;stroke-linejoin:round;stroke-miterlimit:4;stroke-dasharray:none;stroke-opacity:1"
             id="path2002-8"
             inkscape:connector-curvature="0" /></g><g
           id="g2004-4"
           transform="translate(266,404.167)"
           style="stroke-width:2.15894699;stroke-miterlimit:4;stroke-dasharray:none"><path
             d="M 0,0 C 0,1.15 0.933,2.083 2.083,2.083 3.234,2.083 4.167,1.15 4.167,0 4.167,-1.15 3.234,-2.083 2.083,-2.083 0.933,-2.083 0,-1.15 0,0 Z"
             style="fill:none;stroke:#000000;stroke-width:2.15894699;stroke-linecap:round;stroke-linejoin:round;stroke-miterlimit:4;stroke-dasharray:none;stroke-opacity:1"
             id="path2006-8"
             inkscape:connector-curvature="0" /></g><g
           id="g2008-1"
           transform="translate(283.25,427.083)"
           style="stroke-width:2.15894699;stroke-miterlimit:4;stroke-dasharray:none"><path
             d="M 0,0 8.917,0.25"
             style="fill:none;stroke:#000000;stroke-width:2.15894699;stroke-linecap:round;stroke-linejoin:round;stroke-miterlimit:4;stroke-dasharray:none;stroke-opacity:1"
             id="path2010-0"
             inkscape:connector-curvature="0" /></g><g
           id="g2012-3"
           transform="translate(289.667,436.75)"
           style="stroke-width:2.15894699;stroke-miterlimit:4;stroke-dasharray:none"><path
             d="M 0,0 3.833,-7.167"
             style="fill:none;stroke:#000000;stroke-width:2.15894699;stroke-linecap:round;stroke-linejoin:round;stroke-miterlimit:4;stroke-dasharray:none;stroke-opacity:1"
             id="path2014-0"
             inkscape:connector-curvature="0" /></g><g
           id="g2016-4"
           transform="translate(295.8335,429.083)"
           style="stroke-width:2.15894699;stroke-miterlimit:4;stroke-dasharray:none"><path
             d="M 0,0 4.833,6.917"
             style="fill:none;stroke:#000000;stroke-width:2.15894699;stroke-linecap:round;stroke-linejoin:round;stroke-miterlimit:4;stroke-dasharray:none;stroke-opacity:1"
             id="path2018-4"
             inkscape:connector-curvature="0" /></g><g
           id="g2020-4"
           transform="translate(296.5835,426.333)"
           style="stroke-width:2.15894699;stroke-miterlimit:4;stroke-dasharray:none"><path
             d="M 0,0 6.25,-3.583"
             style="fill:none;stroke:#000000;stroke-width:2.15894699;stroke-linecap:round;stroke-linejoin:round;stroke-miterlimit:4;stroke-dasharray:none;stroke-opacity:1"
             id="path2022-4"
             inkscape:connector-curvature="0" /></g><g
           id="g2024-7"
           transform="translate(293.3335,425.417)"
           style="stroke-width:2.15894699;stroke-miterlimit:4;stroke-dasharray:none"><path
             d="M 0,0 -3.417,-8.5"
             style="fill:none;stroke:#000000;stroke-width:2.15894699;stroke-linecap:round;stroke-linejoin:round;stroke-miterlimit:4;stroke-dasharray:none;stroke-opacity:1"
             id="path2026-6"
             inkscape:connector-curvature="0" /></g></g></g></g></svg>