<?xml version="1.0" encoding="UTF-8" standalone="no"?>
<!-- Created with Inkscape (http://www.inkscape.org/) -->

<svg
   xmlns:dc="http://purl.org/dc/elements/1.1/"
   xmlns:cc="http://creativecommons.org/ns#"
   xmlns:rdf="http://www.w3.org/1999/02/22-rdf-syntax-ns#"
   xmlns:svg="http://www.w3.org/2000/svg"
   xmlns="http://www.w3.org/2000/svg"
   xmlns:sodipodi="http://sodipodi.sourceforge.net/DTD/sodipodi-0.dtd"
   xmlns:inkscape="http://www.inkscape.org/namespaces/inkscape"
   version="1.1"
   id="svg2"
   xml:space="preserve"
   width="150"
   height="150"
   viewBox="0 0 150 150"
   sodipodi:docname="sample-fougere.svg"
   inkscape:version="0.92.1 r15371"><metadata
     id="metadata8"><rdf:RDF><cc:Work
         rdf:about=""><dc:format>image/svg+xml</dc:format><dc:type
           rdf:resource="http://purl.org/dc/dcmitype/StillImage" /><dc:title /></cc:Work></rdf:RDF></metadata><defs
     id="defs6"><clipPath
       clipPathUnits="userSpaceOnUse"
       id="clipPath18"><path
         d="M 0,1500 H 3127.032 V 0 H 0 Z"
         id="path16"
         inkscape:connector-curvature="0" /></clipPath><clipPath
       clipPathUnits="userSpaceOnUse"
       id="clipPath662"><path
         d="M 0,1500 H 3127.032 V 0 H 0 Z"
         id="path660"
         inkscape:connector-curvature="0" /></clipPath><clipPath
       clipPathUnits="userSpaceOnUse"
       id="clipPath678"><path
         d="M 0,1500 H 3127.032 V 0 H 0 Z"
         id="path676"
         inkscape:connector-curvature="0" /></clipPath><clipPath
       clipPathUnits="userSpaceOnUse"
       id="clipPath1070"><path
         d="M 0,1500 H 3127.032 V 0 H 0 Z"
         id="path1068"
         inkscape:connector-curvature="0" /></clipPath><clipPath
       clipPathUnits="userSpaceOnUse"
       id="clipPath2242"><path
         d="M 0,1500 H 3127.032 V 0 H 0 Z"
         id="path2240"
         inkscape:connector-curvature="0" /></clipPath></defs><sodipodi:namedview
     pagecolor="#ffffff"
     bordercolor="#666666"
     borderopacity="1"
     objecttolerance="10"
     gridtolerance="10"
     guidetolerance="10"
     inkscape:pageopacity="0"
     inkscape:pageshadow="2"
     inkscape:window-width="1920"
     inkscape:window-height="1016"
     id="namedview4"
     showgrid="false"
     inkscape:zoom="1.2183737"
     inkscape:cx="231.14396"
     inkscape:cy="11.755094"
     inkscape:window-x="0"
     inkscape:window-y="27"
     inkscape:window-maximized="1"
     inkscape:current-layer="g10" /><g
     id="g10"
     inkscape:groupmode="layer"
     inkscape:label="03-planche"
     transform="matrix(1.3333333,0,0,-1.3333333,0,150)"><g
       transform="matrix(0.12080911,1.0600501,-1.0600501,0.12080911,50.46145,-1131.6975)"
       id="g22284-9"
       inkscape:export-xdpi="300"
       inkscape:export-ydpi="300"
       style="stroke-width:2.10889016;stroke-miterlimit:4;stroke-dasharray:none"><g
         transform="translate(1120.709,140.7402)"
         id="g744-5"
         style="stroke-width:2.10889016;stroke-miterlimit:4;stroke-dasharray:none"><path
           inkscape:connector-curvature="0"
           id="path746-0"
           style="fill:#39b54a;fill-opacity:1;fill-rule:nonzero;stroke:none;stroke-width:2.10889016;stroke-miterlimit:4;stroke-dasharray:none"
           d="m 0,0 c 2.672,-3.937 3.013,-8.604 4.371,-13.027 1.154,-3.756 4.171,-6.699 5.695,-10.309 0.652,-1.542 1.207,-3.007 1.966,-4.516 0.32,-0.633 0.46,-1.376 0.804,-1.957 0.355,-0.607 0.903,-1.089 1.163,-1.722 1.081,-2.621 2.736,-4.797 4.264,-7.147 1.641,-2.53 3.521,-5.255 5.874,-7.137 -0.879,-0.297 -1.924,0.13 -2.772,0.335 -0.388,0.092 -0.929,0.399 -1.384,0.51 -0.447,0.111 -0.861,0.039 -1.309,0.148 -0.847,0.201 -1.565,0.817 -2.296,1.235 -0.633,0.36 -1.351,0.58 -1.967,0.985 -1.289,0.847 -3.616,1.357 -4.196,3.023 -0.416,1.196 0.062,2.374 0.236,3.562 0.112,0.766 0.286,1.87 -0.692,1.852 -0.976,-0.019 -1.424,-0.654 -2.436,-0.073 -0.91,0.523 -1.581,1.443 -2.016,2.379 -0.524,1.127 -1.322,1.676 -1.394,3.032 -0.046,0.863 -0.309,2.304 0.624,2.703 -0.13,0.653 -1.678,1.019 -2.255,1.304 -0.845,0.42 -1.384,0.826 -2.048,1.477 -0.543,0.532 -1.238,1.279 -1.245,2.048 -0.01,1.217 1.47,1.077 1.882,1.967 -0.243,0.56 -1.361,0.814 -1.865,1.065 -0.586,0.289 -1.09,0.653 -1.631,0.984 -0.936,0.574 -1.769,1.518 -2.394,2.449 -0.598,0.891 -0.566,1.622 -0.566,2.713 0,0.407 -0.179,1.306 -0.024,1.664 0.119,0.277 0.866,0.703 1.229,0.639 -2.608,-0.093 -4.615,0.794 -5.556,3.288 -0.341,0.907 -0.494,2.634 -0.172,3.596 0.138,0.416 0.52,0.846 0.9,1.066 0.288,0.164 1.215,0.629 1.531,0.556 -0.259,0.372 -0.471,0.265 -0.85,0.336 -0.448,0.085 -0.868,0.266 -1.32,0.346 -0.412,0.072 -0.89,-0.048 -1.31,-0.024 -0.586,0.031 -1.061,0.271 -1.64,0.335 -0.696,0.077 -2.072,0.166 -2.309,0.967 -0.259,0.869 0.317,1.868 0.637,2.571 -0.548,0.25 -1.393,-0.121 -1.933,-0.251 -0.758,-0.182 -1.233,-0.342 -2.04,-0.337 -1.445,0.009 -2.653,-0.173 -3.86,0.655 -0.749,0.514 -1.359,1.248 -2.05,1.887 -0.355,0.327 -0.967,0.686 -1.162,1.137 -0.247,0.567 0.036,1.265 -0.118,1.86 -0.711,-0.063 -1.492,-0.676 -2.156,-0.957 -0.911,-0.387 -1.768,-0.339 -2.772,-0.327 -0.954,0.011 -1.503,0.35 -2.24,0.9 -0.55,0.409 -0.994,1.478 -1.704,1.669 -0.648,0.177 -1.025,-0.336 -1.55,-0.596 -0.606,-0.301 -1.295,-0.593 -1.965,-0.665 -0.783,-0.081 -1.291,0.167 -1.738,-0.604 -0.539,-0.922 -0.419,-2.19 -1.152,-3.027 -0.888,-1.011 -2.775,-0.638 -4.019,-0.622 -1.635,0.02 -1.71,-1.796 -2.198,-3.092 -0.317,-0.847 -0.468,-1.24 -1.312,-1.585 -0.623,-0.254 -1.16,-0.264 -1.729,-0.569 -0.679,-0.362 -1.173,-0.603 -1.562,-1.31 -0.417,-0.754 -0.555,-1.62 -0.821,-2.44 -0.171,-0.521 -0.132,-1.012 -0.238,-1.516 -0.058,-0.266 -0.19,-0.486 -0.248,-0.691 -0.238,-0.844 -0.54,-1.718 -0.744,-2.561 -0.157,-0.655 -0.292,-1.28 -0.318,-1.969 -0.028,-0.787 0.259,-1.067 0.572,-1.724 0.616,-1.287 0.766,-2.758 0.739,-4.193 -0.018,-0.865 0.101,-1.018 0.982,-1.222 0.799,-0.183 1.676,-0.009 2.318,-0.714 0.516,-0.566 0.308,-1.522 0.303,-2.237 -0.003,-0.865 0.277,-1.549 0.347,-2.382 0.089,-1.038 -0.015,-0.869 1.038,-1.042 0.905,-0.148 1.673,-0.647 2.542,-0.908 1.915,-0.577 3.456,-0.355 5.145,0.661 1.52,0.917 3.52,0.17 5.009,-0.334 1.446,-0.491 1.713,-0.024 2.789,0.894 1.005,0.86 2.469,2.405 3.754,2.725 0.991,0.248 1.379,-0.039 2.086,0.881 0.343,0.446 0.464,1.035 0.893,1.432 0.282,0.262 0.617,0.437 0.901,0.703 0.545,0.514 1.036,0.814 1.72,1.149 0.404,0.199 0.706,0.425 1.064,0.665 0.528,0.355 0.485,-0.014 0.585,0.721 0.123,0.924 0.291,1.738 0.567,2.63 0.239,0.77 0.843,1.536 1.029,2.228 -0.615,0.184 -1.252,-0.03 -1.877,0.14 -0.331,0.09 -1.052,0.431 -1.373,0.649 -1.35,0.917 -0.024,2.357 -0.716,3.472 -0.309,0.502 -0.749,0.366 -1.245,0.386 -0.702,0.027 -1.217,0.406 -1.893,0.591 -0.687,0.189 -1.107,0.339 -1.712,0.728 -0.581,0.374 -1.427,0.601 -1.729,1.27 -0.57,-0.094 -1.22,-1.079 -1.878,-1.358 -0.956,-0.404 -2.043,-0.515 -2.99,-0.887 -1.09,-0.427 -0.327,-1.093 -0.279,-1.975 0.021,-0.402 -0.267,-1.991 0.042,-2.252 0.488,-0.414 1.504,0.729 2.179,0.236 0.536,-0.393 0.482,-1.652 0.409,-2.227 -0.118,-0.933 -0.835,-2.032 -1.318,-2.823 -0.387,-0.636 -1.105,-1.862 -1.926,-1.841 -0.164,-0.621 -0.031,-1.02 -0.379,-1.582 -0.414,-0.666 -0.94,-1.11 -1.72,-1.407 -0.713,-0.273 -1.495,-0.298 -2.212,-0.488 -0.361,-0.093 -0.613,-0.035 -0.975,-0.064 -0.521,-0.041 -0.851,-0.285 -1.311,-0.354 -0.352,-0.054 -0.631,0.038 -0.992,-0.055 -0.381,-0.098 -0.548,-0.329 -0.984,-0.279 -0.7,0.08 -1.428,0.522 -1.973,0.926 -1.128,0.842 -1.878,1.936 -2.369,3.27 -0.29,0.793 -0.334,1.698 -0.501,2.568 -0.209,1.09 0.194,1.957 0.272,3.029 0.141,1.931 0.319,3.694 1.357,5.365 0.495,0.796 1.036,1.496 1.584,2.24 0.452,0.609 0.763,1.445 1.293,1.983 1.105,1.121 2.551,1.897 3.687,3.007 1.352,1.32 2.684,1.906 4.5,2.293 1.741,0.371 2.991,-0.005 4.681,-0.472 0.803,-0.223 1.466,-0.671 2.22,-1 0.659,-0.285 1.328,-0.441 1.968,-0.804 1.4,-0.797 2.85,-1.583 4.261,-2.383 1.924,-1.09 4.383,-2.557 5.662,-4.5 0.675,-1.025 1.214,-2.234 1.795,-3.368 0.667,-1.299 0.862,-2.87 1.393,-4.262 0.453,-1.183 0.844,-2.618 0.672,-3.917 -0.196,-1.501 -0.706,-3.585 -1.85,-4.59 -1.701,-1.488 -3.817,-2.438 -5.742,-3.551 -1.614,-0.931 -3.261,-1.675 -4.872,-2.439 -0.823,-0.389 -1.493,-0.939 -2.319,-1.326 -0.826,-0.388 -1.601,-0.831 -2.459,-1.15 -1.326,-0.493 -2.419,-1.468 -3.68,-2.13 -1.088,-0.57 -2.067,-0.993 -3.278,-1.293 -0.203,-0.049 -0.454,-0.201 -0.722,-0.255 -0.394,-0.082 -0.602,-0.083 -0.999,-0.248 -0.647,-0.272 -1.287,-0.513 -1.958,-0.746 -1.134,-0.393 -2.681,-0.465 -3.943,-0.327 -1.756,0.197 -3.529,1.72 -4.732,2.949 -1.386,1.413 -2.885,2.538 -4.126,4.118 -1.41,1.795 -2.726,4.62 -3.189,6.881 -0.43,2.103 -1.07,4.007 -1.055,6.226 0.009,1.473 -0.291,3.324 0.073,4.749 0.698,2.736 1.432,5.673 2.549,8.178 0.568,1.274 0.75,2.698 1.393,3.95 0.667,1.299 1.024,2.692 1.804,3.95 0.34,0.549 0.778,1.089 1.146,1.622 0.42,0.612 0.735,1.369 1.229,1.902 0.365,0.393 0.894,0.676 1.303,1.024 0.403,0.34 0.601,0.848 0.984,1.19 0.473,0.42 1.123,0.781 1.646,1.138 1.405,0.959 2.721,2.075 4.343,2.71 0.885,0.348 1.642,0.095 2.541,0.215 0.464,0.062 0.864,0.3 1.328,0.36 0.42,0.056 0.878,-0.107 1.295,-0.033 0.72,0.127 1.179,0.361 1.95,0.346 0.861,-0.015 1.5,0.29 2.312,0.335 1.501,0.082 3.184,0.111 4.588,-0.263 1.383,-0.369 2.885,0.072 4.262,-0.329 1.514,-0.441 3.079,-0.669 4.589,-1.137 2.641,-0.819 5.291,-1.457 7.868,-2.605 1.325,-0.591 2.454,-1.742 3.687,-2.476 0.671,-0.398 0.952,-0.861 1.55,-1.321 C -5.83,7.048 -5.079,6.44 -4.342,5.824 -3.421,5.055 -2.947,3.938 -2.229,3.025 -1.461,2.055 -0.751,1.102 0,0" /></g><g
         id="g21863-4"
         style="stroke-width:2.10889016;stroke-miterlimit:4;stroke-dasharray:none"><g
           id="g3952-8"
           transform="translate(1155.8779,88.1934)"
           style="stroke-width:2.10889016;stroke-miterlimit:4;stroke-dasharray:none"><path
             d="m 0,0 c -1.661,0.406 -4.616,0.781 -6.208,1.94 -0.892,0.65 -1.131,1.514 -1.854,2.238 -1.55,1.559 -3.441,2.98 -5.046,4.562 -1.411,1.392 -3.068,3.055 -4.179,4.568 -1.307,1.775 -1.858,4.051 -3.012,5.923 -2.466,4.003 -4.048,8.189 -6.115,12.429 -2.022,4.144 -4.13,8.559 -5.733,12.922 -1.17,3.185 -1.549,6.715 -3.011,9.614 -2.036,4.037 -5.482,6.556 -9.422,8.526 -3.37,1.685 -7.662,3.987 -11.36,4.629 -1.78,0.308 -3.637,-0.195 -5.444,0.153 -2.721,0.521 -5.061,0.823 -7.911,0.7 -3.474,-0.151 -8.16,-1.286 -11.316,-2.84 -4.799,-2.365 -8.829,-6.593 -10.782,-11.629 -1.981,-5.117 -3.011,-9.772 -3.013,-15.273 -0.004,-5.358 -0.265,-10.116 3.673,-14.181 3.492,-3.603 8.37,-6.582 13.378,-7.496 7.162,-1.307 12.847,4.022 18.861,7.107 3.264,1.674 8.813,3.582 10.243,7.512 1.903,5.229 -1.568,10.651 -4.859,14.341 -1.855,2.081 -4.807,3.748 -7.14,5.173 -1.637,1.003 -3.496,1.708 -5.266,2.401 -2.225,0.873 -5.235,2.259 -7.666,2.464 -4.172,0.351 -6.856,-3.387 -8.11,-6.831 -0.42,-1.156 -0.713,-2.322 -1.091,-3.497 -0.522,-1.617 -0.34,-2.742 -0.615,-4.37 -0.216,-1.285 -1.009,-2.089 -0.984,-3.451 0.025,-1.495 0.738,-3.803 1.134,-5.285 0.646,-2.415 1.744,-3.647 3.96,-4.591 5.426,-2.311 10.382,1.736 15.121,4.365 3.481,1.932 7.741,6.434 5.003,10.492 -2.962,4.389 -10.53,6.958 -15.554,5.281 -2.82,-0.94 -3.341,-6.003 -3.5,-8.58 -0.16,-2.59 -0.127,-4.927 2.405,-6.356 1.339,-0.755 1.655,-0.72 3.103,0.02 1.053,0.54 2.907,0.951 3.317,1.919 0.264,0.625 0.05,2.876 -0.046,3.584 -0.288,2.122 -1.311,1.772 -2.64,3.476"
             style="fill:none;stroke:#000000;stroke-width:2.10889016;stroke-linecap:round;stroke-linejoin:round;stroke-miterlimit:4;stroke-dasharray:none;stroke-opacity:1"
             id="path3954-7"
             inkscape:connector-curvature="0" /></g><g
           id="g3956-1"
           transform="translate(1085.292,129.9346)"
           style="stroke-width:2.10889016;stroke-miterlimit:4;stroke-dasharray:none"><path
             d="m 0,0 c -1.81,-0.028 -3.97,0.477 -3.965,-1.966 0.006,-1.934 1.58,-1.85 2.732,-3.017 -0.792,1.135 -2.029,1.294 -3.354,1.082 -1.617,-0.259 -2.093,-1.287 -2.559,-2.599 1.167,-0.405 5.688,7.71 1.317,8.368 0.32,-1.22 3.577,-1.707 4.744,-1.114 1.142,0.581 2.54,3.234 2.331,4.491 C -0.788,5.69 -0.514,2.259 0.136,1.315 1.237,-0.288 3.313,-1.075 5.192,-0.524 4.959,0.563 3.058,0.934 2.065,0.589 1.087,-2.654 3.46,-4.833 3.994,-7.704 c 0.28,2.46 -3.011,3.225 -4.173,1.181 -1.155,-2.033 -0.636,-4.466 -1.821,-6.39 0.143,2.462 -0.596,3.533 -3.212,2.949 -1.374,-0.307 -2.77,-0.966 -3.818,-1.839 -0.713,-0.593 -2.502,-1.732 -2.686,-2.519 1.632,0.263 5.015,3.251 3.745,5.188 -0.914,1.395 -5.322,0.669 -6.877,0.578 0.674,0.824 1.638,0.616 2.425,1.312 0.86,0.755 1.656,2.285 2.111,3.313 0.458,1.037 0.845,2.633 0.555,3.783 -0.566,2.245 -2.771,1.868 -4.643,2.294 2.469,0.789 5.871,-2.321 6.564,1.937 0.326,2.001 0.234,4.801 -1.421,6.177 0.819,-2.11 3.347,-2.958 5.323,-3.046 1.025,-0.045 2.502,-0.364 3.167,0.608 0.065,0.444 0.143,0.883 0.237,1.321 0.289,0.861 1.006,1.553 1.269,2.46 C -1.617,10.058 0.729,6.573 2.474,5.71 3.521,5.194 3.978,5.257 4.769,6.378 5.245,7.048 5.891,8.104 6.046,8.95 6.772,8.032 7.327,6.794 8.508,6.508 9.93,6.161 11.141,7.271 12.37,7.149 13.301,5.603 7.358,1.976 10.44,0.097 c 0.474,-0.288 1.331,-0.112 1.871,-0.241 0.478,-0.114 0.779,-0.439 1.441,-0.526 1.193,-0.158 2.545,0.015 3.75,0.015 -0.61,-0.008 -1.939,0.283 -2.472,0.048 -0.395,-0.172 -1.299,-1.435 -1.327,-1.979 -0.064,-1.158 2.55,-4.548 3.753,-3.871 -0.667,2.629 -4.609,3.235 -6.163,1.081 -1.757,-2.435 -0.917,-7.134 0.54,-9.504 0.298,2.853 -3.71,7.773 -6.11,4.58 -0.913,-1.216 -2.416,-7.222 -0.049,-8.072 -0.888,1.807 -1.611,4.005 -3.548,5.016 -1.544,0.802 -3.712,0.443 -4.632,-1.054 -1.019,-1.661 -0.767,-4.159 -0.769,-6 -0.002,-0.965 -0.291,-4.965 1.865,-3.337 1.531,1.156 -1.014,5.384 -1.545,6.407 -0.836,1.612 -1.607,2.636 -3.599,2.291 -1.512,-0.263 -2.44,-1.479 -3.3,-2.655 -0.713,-0.976 -2.342,-2.734 -2.52,-3.845 2.213,-0.118 2.701,5.972 1.29,7.012 -1.246,0.918 -3.378,0.705 -4.648,0.272 -1.424,-0.484 -3.118,-0.678 -4.394,-1.518 1.675,-0.018 3.466,1.4 4.425,2.672 0.964,1.276 2.841,2.93 3.13,4.603 0.265,1.553 -0.972,2.303 -2.515,1.985 -1.363,-0.284 -2.113,-0.738 -3.635,-0.706 -0.947,0.02 -2.012,0.299 -2.713,-0.492 2.604,-0.915 5.893,0.394 5.104,3.639 -0.799,3.285 -5.482,1.982 -7.758,3.46 1.258,-0.084 2.554,-0.083 3.813,-0.046 2.065,0.06 2.586,0.848 3.11,2.971 0.641,2.586 -0.875,7.654 -4.219,7.462 -1.058,-1.572 4.333,-6.303 5.666,-2.584 0.614,1.716 0.961,4.086 0.49,5.929 -0.283,1.112 -0.958,3.707 -2.339,3.869 -0.71,-1.599 0.93,-3.926 1.978,-5.045 1.517,-1.616 3.6,-2.147 5.001,-0.13 0.694,0.999 2.594,8.287 0.852,8.467 -0.478,-1.917 3.505,-4.478 5.18,-3.925 1.637,0.541 5.131,8.175 2.589,9.053 -1.949,-0.586 -0.49,-4.582 0.502,-5.447 1.208,-1.053 3.193,-1.46 4.807,-0.972 1.161,0.353 1.88,1.615 2.555,2.511 0.705,0.936 2.084,2.087 2.397,3.34 -2.642,-0.417 -7.542,-6.602 -3.556,-8.307 1.898,-0.812 4.661,0.789 6.261,1.672 1.04,0.575 3.868,1.918 4.012,3.322 -1.419,0.639 -4.06,-1.985 -4.733,-3.164 -1.096,-1.916 0.129,-3.867 2.181,-4.453 2.22,-0.634 5.126,-0.052 7.276,0.523 1.573,0.42 4.534,0.685 5.602,2.013 -1.775,0.172 -6.426,-3.943 -4.113,-5.881 0.441,-0.37 1.786,-0.077 2.328,-0.064 1.356,0.036 2.74,-0.12 4.093,-0.035 2.106,0.131 4.112,0.599 6.233,0.704 -0.792,0.147 -1.054,-0.501 -1.72,-0.689 C 30.963,10.135 30.039,9.936 28.849,9.342 26.774,8.304 25.556,7.086 25.537,4.589 25.522,2.364 27.403,0.975 29.503,0.624 c 0.966,-0.161 2.293,-0.037 3.278,0.017 1.102,0.06 2.004,0.746 3.094,0.701 -2.69,-0.042 -7.333,-2.21 -5.582,-5.655 0.695,-1.364 2.458,-1.429 3.779,-1.75 1.321,-0.321 3.06,-1.246 4.41,-1.166 -2.6,0.489 -5.708,-1.898 -5.091,-4.586 0.317,-1.381 2.598,-2.311 3.925,-2.657 1.794,-0.468 4.53,0.055 6.426,0.046 -1.561,0.238 -3.576,-0.631 -4.274,-2.11 -0.171,-0.36 -0.591,-1.679 -0.639,-1.967 -0.168,-1.01 -0.202,-1.515 0.316,-2.492 1.028,-1.943 2.807,-1.959 4.78,-1.951 0.8,0.005 1.885,-0.208 2.656,-0.033 0.692,0.156 0.91,0.834 1.723,0.75 -3.065,-1.207 -2.826,-5.466 -0.315,-7.127 1.162,-0.768 3.114,-1.205 4.459,-1.619 1.158,-0.356 2.632,-1.203 3.808,-1.277 0.041,-0.176 0.084,-0.352 0.126,-0.528"
             style="fill:none;stroke:#000000;stroke-width:2.10889016;stroke-linecap:round;stroke-linejoin:round;stroke-miterlimit:4;stroke-dasharray:none;stroke-opacity:1"
             id="path3958-7"
             inkscape:connector-curvature="0" /></g></g></g></g></svg>