<?xml version="1.0" encoding="UTF-8" standalone="no"?>
<!-- Created with Inkscape (http://www.inkscape.org/) -->

<svg
   xmlns:dc="http://purl.org/dc/elements/1.1/"
   xmlns:cc="http://creativecommons.org/ns#"
   xmlns:rdf="http://www.w3.org/1999/02/22-rdf-syntax-ns#"
   xmlns:svg="http://www.w3.org/2000/svg"
   xmlns="http://www.w3.org/2000/svg"
   xmlns:sodipodi="http://sodipodi.sourceforge.net/DTD/sodipodi-0.dtd"
   xmlns:inkscape="http://www.inkscape.org/namespaces/inkscape"
   version="1.1"
   id="svg2"
   xml:space="preserve"
   width="150"
   height="150"
   viewBox="0 0 150 150"
   sodipodi:docname="sample-fleur-rouge.svg"
   inkscape:version="0.92.1 r15371"><metadata
     id="metadata8"><rdf:RDF><cc:Work
         rdf:about=""><dc:format>image/svg+xml</dc:format><dc:type
           rdf:resource="http://purl.org/dc/dcmitype/StillImage" /><dc:title /></cc:Work></rdf:RDF></metadata><defs
     id="defs6"><clipPath
       clipPathUnits="userSpaceOnUse"
       id="clipPath18"><path
         d="M 0,1500 H 3127.032 V 0 H 0 Z"
         id="path16"
         inkscape:connector-curvature="0" /></clipPath><clipPath
       clipPathUnits="userSpaceOnUse"
       id="clipPath662"><path
         d="M 0,1500 H 3127.032 V 0 H 0 Z"
         id="path660"
         inkscape:connector-curvature="0" /></clipPath><clipPath
       clipPathUnits="userSpaceOnUse"
       id="clipPath678"><path
         d="M 0,1500 H 3127.032 V 0 H 0 Z"
         id="path676"
         inkscape:connector-curvature="0" /></clipPath><clipPath
       clipPathUnits="userSpaceOnUse"
       id="clipPath1070"><path
         d="M 0,1500 H 3127.032 V 0 H 0 Z"
         id="path1068"
         inkscape:connector-curvature="0" /></clipPath><clipPath
       clipPathUnits="userSpaceOnUse"
       id="clipPath2242"><path
         d="M 0,1500 H 3127.032 V 0 H 0 Z"
         id="path2240"
         inkscape:connector-curvature="0" /></clipPath></defs><sodipodi:namedview
     pagecolor="#ffffff"
     bordercolor="#666666"
     borderopacity="1"
     objecttolerance="10"
     gridtolerance="10"
     guidetolerance="10"
     inkscape:pageopacity="0"
     inkscape:pageshadow="2"
     inkscape:window-width="1920"
     inkscape:window-height="1016"
     id="namedview4"
     showgrid="false"
     inkscape:zoom="1.2183737"
     inkscape:cx="197.17653"
     inkscape:cy="70.150805"
     inkscape:window-x="0"
     inkscape:window-y="27"
     inkscape:window-maximized="1"
     inkscape:current-layer="g10" /><g
     id="g10"
     inkscape:groupmode="layer"
     inkscape:label="03-planche"
     transform="matrix(1.3333333,0,0,-1.3333333,0,150)"><g
       transform="matrix(0.35885732,-1.3392738,1.3392738,0.35885732,-2305.2583,2403.246)"
       id="g20328-3"
       inkscape:export-xdpi="300"
       inkscape:export-ydpi="300"
       style="stroke-width:1.62276987;stroke-miterlimit:4;stroke-dasharray:none"><g
         transform="translate(2075,1223.5)"
         id="g392-6"
         style="stroke-width:1.62276987;stroke-miterlimit:4;stroke-dasharray:none"><path
           inkscape:connector-curvature="0"
           id="path394-7"
           style="fill:#c1272d;fill-opacity:1;fill-rule:nonzero;stroke:none;stroke-width:1.62276987;stroke-miterlimit:4;stroke-dasharray:none"
           d="m 0,0 c -7.293,0.798 -13.051,0.306 -16.744,-6.893 -2.67,-5.205 -2.889,-14.223 -0.072,-19.315 3.492,-6.313 11.531,-11.487 18.722,-11.758 10.076,-0.379 19.688,9.484 18.436,19.771 C 18.619,-4.045 -0.417,-2.758 -11,-3" /></g><g
         id="g19640-5"
         style="stroke-width:1.62276987;stroke-miterlimit:4;stroke-dasharray:none"><g
           id="g8320-3"
           transform="translate(2059.5605,1215.6748)"
           style="stroke-width:1.62276987;stroke-miterlimit:4;stroke-dasharray:none"><path
             d="m 0,0 c -1.635,-3.646 -3.504,-8.668 -3.848,-12.663 -0.735,-8.54 8.241,-15.729 15.748,-18.129 11.099,-3.549 21.416,5.63 23.84,15.921 C 38.766,-2.028 28.701,5.505 17.063,7.612 10.777,8.75 2.889,6.442 0,0 Z"
             style="fill:none;stroke:#000000;stroke-width:1.62276987;stroke-linecap:round;stroke-linejoin:round;stroke-miterlimit:4;stroke-dasharray:none;stroke-opacity:1"
             id="path8322-5"
             inkscape:connector-curvature="0" /></g><g
           id="g8324-6"
           transform="translate(2052,1215)"
           style="stroke-width:1.62276987;stroke-miterlimit:4;stroke-dasharray:none"><path
             d="M 0,0 C 2.727,1.444 5.299,-0.921 8,-1"
             style="fill:none;stroke:#000000;stroke-width:1.62276987;stroke-linecap:round;stroke-linejoin:round;stroke-miterlimit:4;stroke-dasharray:none;stroke-opacity:1"
             id="path8326-2"
             inkscape:connector-curvature="0" /></g><g
           id="g8328-9"
           transform="translate(2051,1229)"
           style="stroke-width:1.62276987;stroke-miterlimit:4;stroke-dasharray:none"><path
             d="M 0,0 C 2.734,-5.168 7.636,-9.318 11.274,-13.872 11.871,-14.046 12.113,-13.755 12,-13"
             style="fill:none;stroke:#000000;stroke-width:1.62276987;stroke-linecap:round;stroke-linejoin:round;stroke-miterlimit:4;stroke-dasharray:none;stroke-opacity:1"
             id="path8330-1"
             inkscape:connector-curvature="0" /></g><g
           id="g8332-2"
           transform="translate(2056,1234)"
           style="stroke-width:1.62276987;stroke-miterlimit:4;stroke-dasharray:none"><path
             d="M 0,0 C 5.67,-5.672 9.786,-10.33 12.574,-17.947 12.107,-17.953 11.916,-17.638 12,-17"
             style="fill:none;stroke:#000000;stroke-width:1.62276987;stroke-linecap:round;stroke-linejoin:round;stroke-miterlimit:4;stroke-dasharray:none;stroke-opacity:1"
             id="path8334-7"
             inkscape:connector-curvature="0" /></g><g
           id="g8336-0"
           transform="translate(2067,1241)"
           style="stroke-width:1.62276987;stroke-miterlimit:4;stroke-dasharray:none"><path
             d="M 0,0 C 4.433,-5.311 8.733,-16.291 7.996,-23.201 8,-23.908 8.002,-23.842 8,-23"
             style="fill:none;stroke:#000000;stroke-width:1.62276987;stroke-linecap:round;stroke-linejoin:round;stroke-miterlimit:4;stroke-dasharray:none;stroke-opacity:1"
             id="path8338-9"
             inkscape:connector-curvature="0" /></g><g
           id="g8340-3"
           transform="translate(2078,1245)"
           style="stroke-width:1.62276987;stroke-miterlimit:4;stroke-dasharray:none"><path
             d="M 0,0 C 1.417,-5.006 4.092,-8.793 4.759,-14.224 5.283,-18.491 6.439,-23.943 6,-28.149 V -28"
             style="fill:none;stroke:#000000;stroke-width:1.62276987;stroke-linecap:round;stroke-linejoin:round;stroke-miterlimit:4;stroke-dasharray:none;stroke-opacity:1"
             id="path8342-6"
             inkscape:connector-curvature="0" /></g><g
           id="g8344-0"
           transform="translate(2091,1238)"
           style="stroke-width:1.62276987;stroke-miterlimit:4;stroke-dasharray:none"><path
             d="m 0,0 c -0.021,-6.089 0.183,-12.154 -0.499,-18.18 -0.453,-4.008 0.262,-8.888 -0.728,-12.796 C -1.852,-31.085 -2.109,-30.76 -2,-30"
             style="fill:none;stroke:#000000;stroke-width:1.62276987;stroke-linecap:round;stroke-linejoin:round;stroke-miterlimit:4;stroke-dasharray:none;stroke-opacity:1"
             id="path8346-6"
             inkscape:connector-curvature="0" /></g><g
           id="g8348-2"
           transform="translate(2058,1204)"
           style="stroke-width:1.62276987;stroke-miterlimit:4;stroke-dasharray:none"><path
             d="M 0,0 C -1.623,-0.404 -13.791,-3.373 -13,-5"
             style="fill:none;stroke:#000000;stroke-width:1.62276987;stroke-linecap:round;stroke-linejoin:round;stroke-miterlimit:4;stroke-dasharray:none;stroke-opacity:1"
             id="path8350-6"
             inkscape:connector-curvature="0" /></g><g
           id="g8352-1"
           transform="translate(2059,1194)"
           style="stroke-width:1.62276987;stroke-miterlimit:4;stroke-dasharray:none"><path
             d="M 0,0 C -6.612,-2.547 -11.764,-4.697 -18,-8"
             style="fill:none;stroke:#000000;stroke-width:1.62276987;stroke-linecap:round;stroke-linejoin:round;stroke-miterlimit:4;stroke-dasharray:none;stroke-opacity:1"
             id="path8354-8"
             inkscape:connector-curvature="0" /></g><g
           id="g8356-7"
           transform="translate(2064,1194)"
           style="stroke-width:1.62276987;stroke-miterlimit:4;stroke-dasharray:none"><path
             d="m 0,0 c -0.72,-5.131 -7.144,-15.023 -12.149,-16.623 0.33,0.577 0.713,1.118 1.149,1.623"
             style="fill:none;stroke:#000000;stroke-width:1.62276987;stroke-linecap:round;stroke-linejoin:round;stroke-miterlimit:4;stroke-dasharray:none;stroke-opacity:1"
             id="path8358-9"
             inkscape:connector-curvature="0" /></g><g
           id="g8360-2"
           transform="translate(2075,1193)"
           style="stroke-width:1.62276987;stroke-miterlimit:4;stroke-dasharray:none"><path
             d="M 0,0 C -0.569,-7.926 -6.174,-14.588 -8.249,-21.9 -8.854,-22.07 -9.104,-21.771 -9,-21"
             style="fill:none;stroke:#000000;stroke-width:1.62276987;stroke-linecap:round;stroke-linejoin:round;stroke-miterlimit:4;stroke-dasharray:none;stroke-opacity:1"
             id="path8362-0"
             inkscape:connector-curvature="0" /></g><g
           id="g8364-2"
           transform="translate(2069,1200)"
           style="stroke-width:1.62276987;stroke-miterlimit:4;stroke-dasharray:none"><path
             d="m 0,0 c -4.545,-3.096 -9.764,-6.253 -13.955,-9.241 -2.215,-1.579 -4.517,-3.042 -6.093,-5.405 0.03,0.548 0.047,1.097 0.048,1.646"
             style="fill:none;stroke:#000000;stroke-width:1.62276987;stroke-linecap:round;stroke-linejoin:round;stroke-miterlimit:4;stroke-dasharray:none;stroke-opacity:1"
             id="path8366-3"
             inkscape:connector-curvature="0" /></g><g
           id="g8368-7"
           transform="translate(2069,1206)"
           style="stroke-width:1.62276987;stroke-miterlimit:4;stroke-dasharray:none"><path
             d="M 0,0 C -9.843,-1.753 -18.979,-5.39 -27.924,-9.574 -27.977,-9.103 -27.668,-8.911 -27,-9"
             style="fill:none;stroke:#000000;stroke-width:1.62276987;stroke-linecap:round;stroke-linejoin:round;stroke-miterlimit:4;stroke-dasharray:none;stroke-opacity:1"
             id="path8370-5"
             inkscape:connector-curvature="0" /></g><g
           id="g8372-9"
           transform="translate(2071,1202)"
           style="stroke-width:1.62276987;stroke-miterlimit:4;stroke-dasharray:none"><path
             d="M 0,0 C -1.578,9.318 -5.024,17.147 -8.591,25.88 -7.835,25.369 -6.717,24.677 -6,24"
             style="fill:none;stroke:#000000;stroke-width:1.62276987;stroke-linecap:round;stroke-linejoin:round;stroke-miterlimit:4;stroke-dasharray:none;stroke-opacity:1"
             id="path8374-2"
             inkscape:connector-curvature="0" /></g><g
           id="g8376-2"
           transform="translate(2074,1226)"
           style="stroke-width:1.62276987;stroke-miterlimit:4;stroke-dasharray:none"><path
             d="M 0,0 C 1.32,-7.476 2.939,-14.472 3,-22"
             style="fill:none;stroke:#000000;stroke-width:1.62276987;stroke-linecap:round;stroke-linejoin:round;stroke-miterlimit:4;stroke-dasharray:none;stroke-opacity:1"
             id="path8378-8"
             inkscape:connector-curvature="0" /></g><g
           id="g8380-9"
           transform="translate(2082,1195)"
           style="stroke-width:1.62276987;stroke-miterlimit:4;stroke-dasharray:none"><path
             d="M 0,0 C 0.001,-4.541 0.18,-8.658 -1.001,-12.978 -1.516,-14.863 -3.135,-20.627 -4,-20"
             style="fill:none;stroke:#000000;stroke-width:1.62276987;stroke-linecap:round;stroke-linejoin:round;stroke-miterlimit:4;stroke-dasharray:none;stroke-opacity:1"
             id="path8382-7"
             inkscape:connector-curvature="0" /></g><g
           id="g8384-3"
           transform="translate(2087,1198)"
           style="stroke-width:1.62276987;stroke-miterlimit:4;stroke-dasharray:none"><path
             d="M 0,0 C 0.006,-0.071 3.117,-7.91 3.918,-10.34 4.524,-12.179 5.514,-19.013 7,-18"
             style="fill:none;stroke:#000000;stroke-width:1.62276987;stroke-linecap:round;stroke-linejoin:round;stroke-miterlimit:4;stroke-dasharray:none;stroke-opacity:1"
             id="path8386-6"
             inkscape:connector-curvature="0" /></g><g
           id="g8388-1"
           transform="translate(2090,1204)"
           style="stroke-width:1.62276987;stroke-miterlimit:4;stroke-dasharray:none"><path
             d="M 0,0 C 3.256,-3.262 6.689,-6.39 9.514,-10.016 10.641,-11.463 13.149,-15.049 13,-15"
             style="fill:none;stroke:#000000;stroke-width:1.62276987;stroke-linecap:round;stroke-linejoin:round;stroke-miterlimit:4;stroke-dasharray:none;stroke-opacity:1"
             id="path8390-2"
             inkscape:connector-curvature="0" /></g><g
           id="g8392-9"
           transform="translate(2091,1208)"
           style="stroke-width:1.62276987;stroke-miterlimit:4;stroke-dasharray:none"><path
             d="M 0,0 C 4.168,3.185 11.582,7.475 16.849,8.174 17.122,8.758 17.172,9.366 17,10"
             style="fill:none;stroke:#000000;stroke-width:1.62276987;stroke-linecap:round;stroke-linejoin:round;stroke-miterlimit:4;stroke-dasharray:none;stroke-opacity:1"
             id="path8394-3"
             inkscape:connector-curvature="0" /></g><g
           id="g8396-1"
           transform="translate(2102,1227)"
           style="stroke-width:1.62276987;stroke-miterlimit:4;stroke-dasharray:none"><path
             d="M 0,0 C -3.279,-2.019 -15.174,-8.797 -14,-14"
             style="fill:none;stroke:#000000;stroke-width:1.62276987;stroke-linecap:round;stroke-linejoin:round;stroke-miterlimit:4;stroke-dasharray:none;stroke-opacity:1"
             id="path8398-9"
             inkscape:connector-curvature="0" /></g><g
           id="g8400-4"
           transform="translate(2082,1206)"
           style="stroke-width:1.62276987;stroke-miterlimit:4;stroke-dasharray:none"><path
             d="m 0,0 c -8.165,-3.656 -12.83,-16.18 -18.875,-22.6 -0.097,0.465 0.195,0.665 0.875,0.6"
             style="fill:none;stroke:#000000;stroke-width:1.62276987;stroke-linecap:round;stroke-linejoin:round;stroke-miterlimit:4;stroke-dasharray:none;stroke-opacity:1"
             id="path8402-7"
             inkscape:connector-curvature="0" /></g><g
           id="g8404-8"
           transform="translate(2084,1204)"
           style="stroke-width:1.62276987;stroke-miterlimit:4;stroke-dasharray:none"><path
             d="M 0,0 C 0.214,-5.155 -1.184,-15.554 -4.773,-18.92 -5.094,-18.314 -5.169,-17.674 -5,-17"
             style="fill:none;stroke:#000000;stroke-width:1.62276987;stroke-linecap:round;stroke-linejoin:round;stroke-miterlimit:4;stroke-dasharray:none;stroke-opacity:1"
             id="path8406-4"
             inkscape:connector-curvature="0" /></g><g
           id="g8408-5"
           transform="translate(2084,1207)"
           style="stroke-width:1.62276987;stroke-miterlimit:4;stroke-dasharray:none"><path
             d="M 0,0 C 0.007,5.366 1.251,14.386 -2,19"
             style="fill:none;stroke:#000000;stroke-width:1.62276987;stroke-linecap:round;stroke-linejoin:round;stroke-miterlimit:4;stroke-dasharray:none;stroke-opacity:1"
             id="path8410-0"
             inkscape:connector-curvature="0" /></g></g></g></g></svg>